{
  "posts": [
    {
      "title": "Anohana",
      "image": "https://media-assets-ggwp.s3.ap-southeast-1.amazonaws.com/2021/08/anohana-10-years-after-featured-640x360.jpg",
      "body": "Anohana Deskripsi",
      "id": 23
    },
    {
      "title": "Anta Pratama",
      "image": "https://media-exp1.licdn.com/dms/image/C5103AQGoeOjbDj9_QA/profile-displayphoto-shrink_200_200/0/1533447602256?e=1644451200&v=beta&t=vQvnQ-gjZ9eivOLqE594zDvHZfDKq7TYDmRachT7msc",
      "body": "asdsadasdasd",
      "id": 24
    },
    {
      "title": "Kimi No Nawa Update",
      "image": "https://assets.pikiran-rakyat.com/crop/0x757:1080x1349/x/photo/2021/09/19/3770696650.jpg",
      "body": "Kimi No Nawa Update",
      "id": 25
    }
  ]
}